[{
  "field": "first_name",
  "method": "isEmpty",
  "args": [{"ignore_whitespace": true}],
  "validWhen": false,
  "message": "err-2001"
},
{
  "field": "first_name",
  "method": "isLength",
  "args": [{"max": 60}],
  "validWhen": true,
  "message": "err-2002"
},
{
  "field": "last_name",
  "method": "isEmpty",
  "args": [{"ignore_whitespace": true}],
  "validWhen": false,
  "message": "err-2001"
},
{
  "field": "last_name",
  "method": "isLength",
  "args": [{"max": 60}],
  "validWhen": true,
  "message": "err-2002"
},
{
  "field": "nickname",
  "method": "isEmpty",
  "args": [{"ignore_whitespace": true}],
  "validWhen": false,
  "message": "err-2001"
},
{
  "field": "nickname",
  "method": "isLength",
  "args": [{"max": 30}],
  "validWhen": true,
  "message": "err-2002"
},
{
  "field": "category",
  "method": "isEmpty",
  "args": [{"ignore_whitespace": true}],
  "validWhen": false,
  "message": "err-2001"
},
{
  "field": "category",
  "method": "isLength",
  "args": [{"max": 60}],
  "validWhen": true,
  "message": "err-2002"
},
{
  "field": "affiliation",
  "method": "isEmpty",
  "args": [{"ignore_whitespace": true}],
  "validWhen": false,
  "message": "err-2001"
},
{
  "field": "affiliation",
  "method": "isLength",
  "args": [{"max": 60}],
  "validWhen": true,
  "message": "err-2002"
},
{
  "field": "interests",
  "method": "isLength",
  "args": [{"min": 1}],
  "validWhen": true,
  "message": "err-2003"
},
{
  "field": "skills",
  "method": "isLength",
  "args": [{"min": 1}],
  "validWhen": true,
  "message": "err-2004"
}]